G04 DipTrace 3.1.0.0*
G04 TopSilk.gbr*
%MOIN*%
G04 #@! TF.FileFunction,Legend,Top*
G04 #@! TF.Part,Single*
%ADD10C,0.009843*%
%ADD72C,0.006176*%
%FSLAX26Y26*%
G04*
G70*
G90*
G75*
G01*
G04 TopSilk*
%LPD*%
X844888Y2247897D2*
D10*
Y2397772D1*
X845113Y2247597D2*
G03X845113Y2398072I99796J75238D01*
G01*
X1132380Y2956512D2*
Y2756474D1*
X757372Y3100227D2*
Y3206496D1*
X1132380D1*
Y3100227D1*
X757372Y2756474D2*
Y2956512D1*
X822856Y3031507D2*
G02X822856Y3031507I122045J0D01*
G01*
X1663876Y2956512D2*
Y2756474D1*
X1288868Y3100227D2*
Y3206496D1*
X1663876D1*
Y3100227D1*
X1288868Y2756474D2*
Y2956512D1*
X1354352Y3031507D2*
G02X1354352Y3031507I122045J0D01*
G01*
X600883Y2956512D2*
Y2756474D1*
X225876Y3100227D2*
Y3206496D1*
X600883D1*
Y3100227D1*
X225876Y2756474D2*
Y2956512D1*
X291360Y3031507D2*
G02X291360Y3031507I122045J0D01*
G01*
X600883Y3625804D2*
Y3425765D1*
X225876Y3769519D2*
Y3875787D1*
X600883D1*
Y3769519D1*
X225876Y3425765D2*
Y3625804D1*
X291360Y3700799D2*
G02X291360Y3700799I122045J0D01*
G01*
X1663876Y3625804D2*
Y3425765D1*
X1288868Y3769519D2*
Y3875787D1*
X1663876D1*
Y3769519D1*
X1288868Y3425765D2*
Y3625804D1*
X1354352Y3700799D2*
G02X1354352Y3700799I122045J0D01*
G01*
X1858244Y2661990D2*
Y1761990D1*
X1758244Y2661990D2*
X1858244D1*
X1758244D2*
Y1761990D1*
X1858244D1*
X31942Y2966289D2*
Y2366289D1*
X131942Y2966289D2*
Y2366289D1*
X31942Y2966289D2*
X131942D1*
X31942Y2366289D2*
X131942D1*
X34990Y2967990D2*
X134990D1*
X34990Y3367990D2*
Y2967990D1*
X134990Y3367990D2*
Y2967990D1*
X34990Y3367990D2*
X134990D1*
X612562Y1134547D2*
X226736D1*
Y701476D1*
X612562D1*
Y1134547D1*
X295296Y905518D2*
G02X295296Y905518I118090J0D01*
G01*
X1144058Y1134547D2*
X758232D1*
Y701476D1*
X1144058D1*
Y1134547D1*
X826792Y905518D2*
G02X826792Y905518I118090J0D01*
G01*
X612562Y425886D2*
X226736D1*
Y-7185D1*
X612562D1*
Y425886D1*
X295296Y196856D2*
G02X295296Y196856I118090J0D01*
G01*
X1675554Y425886D2*
X1289728D1*
Y-7185D1*
X1675554D1*
Y425886D1*
X1358288Y196856D2*
G02X1358288Y196856I118090J0D01*
G01*
X1144058Y425886D2*
X758232D1*
Y-7185D1*
X1144058D1*
Y425886D1*
X826792Y196856D2*
G02X826792Y196856I118090J0D01*
G01*
X1675554Y1134547D2*
X1289728D1*
Y701476D1*
X1675554D1*
Y1134547D1*
X1358288Y905518D2*
G02X1358288Y905518I118090J0D01*
G01*
X738659Y1662437D2*
X678664D1*
X738659Y1502129D2*
Y1662437D1*
Y1502129D2*
X678664D1*
Y1662437D1*
X834855Y2109000D2*
Y2049000D1*
X995165Y2109000D2*
X834855D1*
X995165D2*
Y2049000D1*
X834855D1*
X699767Y1329210D2*
Y1269215D1*
X860075Y1329210D2*
X699767D1*
X860075D2*
Y1269215D1*
X699767D1*
X600883Y2247851D2*
Y2047812D1*
X225876Y2391566D2*
Y2497835D1*
X600883D1*
Y2391566D1*
X225876Y2047812D2*
Y2247851D1*
X291360Y2322846D2*
G02X291360Y2322846I122045J0D01*
G01*
X1663876Y2247851D2*
Y2047812D1*
X1288868Y2391566D2*
Y2497835D1*
X1663876D1*
Y2391566D1*
X1288868Y2047812D2*
Y2247851D1*
X1354352Y2322846D2*
G02X1354352Y2322846I122045J0D01*
G01*
X814961Y1364198D2*
X1074803D1*
Y1864149D1*
X814961D1*
Y1364198D1*
X1346457D2*
X1606299D1*
Y1864149D1*
X1346457D1*
Y1364198D1*
X283465D2*
X543307D1*
Y1864149D1*
X283465D1*
Y1364198D1*
X1194857Y3570866D2*
X694906D1*
Y3830709D1*
X1194857D1*
Y3570866D1*
X786310Y2303338D2*
D72*
X826502D1*
Y2314056D1*
X824557Y2318655D1*
X820754Y2321732D1*
X816907Y2323253D1*
X811203Y2324774D1*
X801609D1*
X795861Y2323253D1*
X792058Y2321732D1*
X788211Y2318655D1*
X786310Y2314056D1*
Y2303338D1*
X794004Y2334655D2*
X792058Y2337733D1*
X786354Y2342331D1*
X826502D1*
X937982Y3270389D2*
X918067D1*
Y3230197D1*
Y3251244D2*
X930306D1*
X947863Y3270389D2*
Y3230197D1*
X979180Y3270389D2*
Y3230197D1*
X957744Y3270389D1*
Y3230197D1*
X1008941Y3270389D2*
X989061D1*
Y3230197D1*
X1008941D1*
X989061Y3251244D2*
X1001300D1*
X1475278Y3270389D2*
X1455363D1*
Y3230197D1*
Y3251244D2*
X1467602D1*
X1509637Y3230197D2*
Y3270389D1*
X1497398Y3230197D1*
X1485159Y3270389D1*
Y3230197D1*
X375627Y3270389D2*
X355712D1*
Y3230197D1*
Y3251244D2*
X367951D1*
X385508D2*
X399268D1*
X403867Y3253190D1*
X405423Y3255091D1*
X406944Y3258893D1*
Y3262740D1*
X405423Y3266543D1*
X403867Y3268488D1*
X399268Y3270389D1*
X385508D1*
Y3230197D1*
X396226Y3251244D2*
X406944Y3230197D1*
X436704Y3270389D2*
X416825D1*
Y3230197D1*
X436704D1*
X416825Y3251244D2*
X429064D1*
X455782Y3270389D2*
X452740Y3268532D1*
X449663Y3264686D1*
X448142Y3260839D1*
X446586Y3255091D1*
Y3245540D1*
X448142Y3239792D1*
X449663Y3235990D1*
X452740Y3232143D1*
X455782Y3230242D1*
X461902D1*
X464979Y3232143D1*
X468021Y3235990D1*
X469542Y3239792D1*
X471099Y3245540D1*
Y3255091D1*
X469542Y3260839D1*
X468021Y3264686D1*
X464979Y3268532D1*
X461902Y3270389D1*
X455782D1*
X460381Y3237891D2*
X469542Y3226395D1*
X628849Y3502181D2*
Y3461989D1*
X660166Y3502181D2*
Y3461989D1*
X638731Y3502181D1*
Y3461989D1*
X1201183Y3502181D2*
Y3461989D1*
X1232500Y3502181D2*
Y3461989D1*
X1211064Y3502181D1*
Y3461989D1*
X1243938Y3492586D2*
Y3494487D1*
X1245459Y3498334D1*
X1246980Y3500235D1*
X1250057Y3502137D1*
X1256176D1*
X1259218Y3500235D1*
X1260739Y3498334D1*
X1262296Y3494487D1*
Y3490685D1*
X1260739Y3486838D1*
X1257697Y3481134D1*
X1242381Y3461989D1*
X1263817D1*
X1699666Y2210869D2*
X1730263D1*
X1736011Y2209348D1*
X1737912Y2207792D1*
X1739858Y2204750D1*
Y2201672D1*
X1737912Y2198630D1*
X1736011Y2197109D1*
X1730263Y2195553D1*
X1726460D1*
X1707359Y2220750D2*
X1705414Y2223828D1*
X1699710Y2228426D1*
X1739858D1*
X145509Y2658289D2*
X176106D1*
X181855Y2656768D1*
X183756Y2655211D1*
X185701Y2652169D1*
Y2649092D1*
X183756Y2646050D1*
X181854Y2644529D1*
X176106Y2642972D1*
X172304D1*
X155104Y2669726D2*
X153203D1*
X149356Y2671247D1*
X147455Y2672768D1*
X145553Y2675845D1*
Y2681965D1*
X147455Y2685007D1*
X149356Y2686528D1*
X153203Y2688084D1*
X157005D1*
X160852Y2686528D1*
X166556Y2683486D1*
X185701Y2668170D1*
Y2689605D1*
X148556Y3159229D2*
X179154D1*
X184902Y3157708D1*
X186803Y3156151D1*
X188749Y3153109D1*
Y3150032D1*
X186803Y3146990D1*
X184902Y3145469D1*
X179154Y3143913D1*
X175351D1*
X188749Y3184426D2*
X148601D1*
X175351Y3169110D1*
Y3192067D1*
X401153Y1214090D2*
Y1183493D1*
X399632Y1177745D1*
X398075Y1175844D1*
X395033Y1173898D1*
X391956D1*
X388914Y1175844D1*
X387393Y1177745D1*
X385836Y1183493D1*
Y1187296D1*
X430949Y1214090D2*
X411034D1*
Y1173898D1*
Y1194945D2*
X423273D1*
X465307Y1173898D2*
Y1214090D1*
X453069Y1173898D1*
X440830Y1214090D1*
Y1173898D1*
X475189Y1206397D2*
X478266Y1208342D1*
X482864Y1214046D1*
Y1173898D1*
X913269Y1201590D2*
Y1170993D1*
X911748Y1165245D1*
X910191Y1163344D1*
X907149Y1161398D1*
X904072D1*
X901030Y1163344D1*
X899509Y1165245D1*
X897953Y1170993D1*
Y1174796D1*
X943065Y1201590D2*
X923150D1*
Y1161398D1*
Y1182445D2*
X935389D1*
X977424Y1161398D2*
Y1201590D1*
X965185Y1161398D1*
X952946Y1201590D1*
Y1161398D1*
X988861Y1191995D2*
Y1193897D1*
X990382Y1197744D1*
X991903Y1199645D1*
X994980Y1201546D1*
X1001100D1*
X1004142Y1199645D1*
X1005663Y1197744D1*
X1007219Y1193897D1*
Y1190094D1*
X1005663Y1186247D1*
X1002621Y1180544D1*
X987305Y1161398D1*
X1008740D1*
X387631Y492929D2*
Y462332D1*
X386110Y456584D1*
X384554Y454682D1*
X381512Y452737D1*
X378434D1*
X375392Y454682D1*
X373871Y456584D1*
X372315Y462332D1*
Y466134D1*
X397512Y492929D2*
Y452737D1*
X428829Y492929D2*
Y452737D1*
X407393Y492929D1*
Y452737D1*
X438710Y485235D2*
X441788Y487181D1*
X446386Y492885D1*
Y452737D1*
X1443743Y505429D2*
Y474832D1*
X1442222Y469084D1*
X1440666Y467182D1*
X1437624Y465237D1*
X1434546D1*
X1431504Y467182D1*
X1429983Y469084D1*
X1428427Y474832D1*
Y478634D1*
X1453624Y505429D2*
Y465237D1*
X1484941Y505429D2*
Y465237D1*
X1463505Y505429D1*
Y465237D1*
X1496379Y495834D2*
Y497735D1*
X1497900Y501582D1*
X1499421Y503483D1*
X1502498Y505385D1*
X1508618D1*
X1511660Y503483D1*
X1513181Y501582D1*
X1514737Y497735D1*
Y493933D1*
X1513181Y490086D1*
X1510139Y484382D1*
X1494822Y465237D1*
X1516258D1*
X900008Y492929D2*
Y462332D1*
X898487Y456584D1*
X896931Y454682D1*
X893889Y452737D1*
X890811D1*
X887769Y454682D1*
X886248Y456584D1*
X884692Y462332D1*
Y466134D1*
X919086Y492929D2*
X916009Y491028D1*
X912967Y487181D1*
X911410Y483378D1*
X909889Y477630D1*
Y468035D1*
X911410Y462332D1*
X912967Y458485D1*
X916009Y454682D1*
X919086Y452737D1*
X925206D1*
X928248Y454682D1*
X931325Y458485D1*
X932846Y462332D1*
X934367Y468035D1*
Y477630D1*
X932846Y483378D1*
X931325Y487181D1*
X928248Y491028D1*
X925206Y492929D1*
X919086D1*
X944248D2*
Y464233D1*
X945769Y458485D1*
X948847Y454682D1*
X953445Y452737D1*
X956487D1*
X961086Y454682D1*
X964163Y458485D1*
X965684Y464233D1*
Y492929D1*
X986283D2*
Y452737D1*
X975565Y492929D2*
X997001D1*
X1407449Y1193126D2*
Y1162528D1*
X1405928Y1156780D1*
X1404372Y1154879D1*
X1401330Y1152934D1*
X1398252D1*
X1395210Y1154879D1*
X1393689Y1156780D1*
X1392133Y1162528D1*
Y1166331D1*
X1417330Y1173980D2*
X1431090D1*
X1435689Y1175926D1*
X1437245Y1177827D1*
X1438766Y1181630D1*
Y1185476D1*
X1437245Y1189279D1*
X1435689Y1191224D1*
X1431090Y1193126D1*
X1417330D1*
Y1152934D1*
X1428048Y1173980D2*
X1438766Y1152934D1*
X1468527Y1193126D2*
X1448647D1*
Y1152934D1*
X1468527D1*
X1448647Y1173980D2*
X1460886D1*
X1499843Y1187378D2*
X1496801Y1191224D1*
X1492203Y1193126D1*
X1486084D1*
X1481485Y1191224D1*
X1478408Y1187378D1*
Y1183575D1*
X1479964Y1179728D1*
X1481485Y1177827D1*
X1484527Y1175926D1*
X1493724Y1172079D1*
X1496801Y1170178D1*
X1498322Y1168232D1*
X1499843Y1164430D1*
Y1158682D1*
X1496801Y1154879D1*
X1492203Y1152934D1*
X1486084D1*
X1481485Y1154879D1*
X1478408Y1158682D1*
X1532681Y1183575D2*
X1531160Y1187378D1*
X1528083Y1191224D1*
X1525041Y1193126D1*
X1518921D1*
X1515844Y1191224D1*
X1512802Y1187378D1*
X1511246Y1183575D1*
X1509725Y1177827D1*
Y1168232D1*
X1511246Y1162528D1*
X1512802Y1158682D1*
X1515844Y1154879D1*
X1518921Y1152934D1*
X1525041D1*
X1528083Y1154879D1*
X1531160Y1158682D1*
X1532681Y1162528D1*
X1542562Y1193126D2*
X1554801Y1152934D1*
X1567040Y1193126D1*
X636728Y1562787D2*
Y1576547D1*
X634783Y1581146D1*
X632882Y1582702D1*
X629079Y1584223D1*
X625232D1*
X621430Y1582702D1*
X619484Y1581146D1*
X617583Y1576547D1*
Y1562787D1*
X657775D1*
X636728Y1573505D2*
X657775Y1584223D1*
X625277Y1594104D2*
X623331Y1597181D1*
X617627Y1601780D1*
X657775D1*
X726348Y1557104D2*
X686200D1*
X712950Y1541788D1*
Y1564744D1*
X726348Y1580745D2*
X686200Y1596061D1*
Y1574625D1*
X686156Y1605942D2*
X726348D1*
X699553Y1621258D2*
X718698Y1605942D1*
X711049Y1612062D2*
X726348Y1622779D1*
X696039Y2052624D2*
Y2066384D1*
X694094Y2070982D1*
X692193Y2072539D1*
X688390Y2074060D1*
X684543D1*
X680741Y2072539D1*
X678795Y2070982D1*
X676894Y2066384D1*
Y2052624D1*
X717086D1*
X696039Y2063342D2*
X717086Y2074059D1*
X686489Y2085497D2*
X684588D1*
X680741Y2087018D1*
X678840Y2088539D1*
X676938Y2091616D1*
Y2097736D1*
X678840Y2100778D1*
X680741Y2102299D1*
X684588Y2103855D1*
X688390D1*
X692237Y2102299D1*
X697941Y2099257D1*
X717086Y2083941D1*
Y2105376D1*
X894673Y2093812D2*
X897750Y2095758D1*
X902349Y2101462D1*
Y2061314D1*
X912230Y2101506D2*
Y2061314D1*
X927546Y2088108D2*
X912230Y2068963D1*
X918349Y2076612D2*
X929067Y2061314D1*
X557988Y1256417D2*
Y1270177D1*
X556043Y1274776D1*
X554141Y1276332D1*
X550339Y1277853D1*
X546492D1*
X542690Y1276332D1*
X540744Y1274776D1*
X538843Y1270177D1*
Y1256417D1*
X579035D1*
X557988Y1267135D2*
X579035Y1277853D1*
X538887Y1306093D2*
Y1290812D1*
X556087Y1289291D1*
X554186Y1290812D1*
X552240Y1295410D1*
Y1299973D1*
X554186Y1304572D1*
X557988Y1307649D1*
X563736Y1309170D1*
X567539D1*
X573287Y1307649D1*
X577134Y1304572D1*
X579035Y1299973D1*
Y1295410D1*
X577134Y1290812D1*
X575188Y1289291D1*
X571386Y1287734D1*
X579035Y1334367D2*
X538887D1*
X565638Y1319051D1*
Y1342008D1*
X754742Y1281526D2*
Y1321674D1*
X739425Y1294924D1*
X762382D1*
X778383Y1281526D2*
X793699Y1321674D1*
X772263D1*
X803580Y1321718D2*
Y1281526D1*
X818896Y1308321D2*
X803580Y1289176D1*
X809699Y1296825D2*
X820417Y1281526D1*
X365751Y2542583D2*
X379511D1*
X384110Y2544528D1*
X385666Y2546429D1*
X387187Y2550232D1*
Y2554079D1*
X385666Y2557881D1*
X384110Y2559827D1*
X379511Y2561728D1*
X365751D1*
Y2521536D1*
X376469Y2542583D2*
X387187Y2521536D1*
X416948Y2561728D2*
X397068D1*
Y2521536D1*
X416948D1*
X397068Y2542583D2*
X409307D1*
X448264Y2555980D2*
X445222Y2559827D1*
X440624Y2561728D1*
X434504D1*
X429906Y2559827D1*
X426829Y2555980D1*
Y2552177D1*
X428385Y2548331D1*
X429906Y2546429D1*
X432948Y2544528D1*
X442145Y2540681D1*
X445222Y2538780D1*
X446743Y2536835D1*
X448264Y2533032D1*
Y2527284D1*
X445222Y2523482D1*
X440624Y2521536D1*
X434504D1*
X429906Y2523482D1*
X426829Y2527284D1*
X1401543Y2537268D2*
X1415303D1*
X1419901Y2539213D1*
X1421457Y2541114D1*
X1422978Y2544917D1*
Y2548764D1*
X1421457Y2552566D1*
X1419901Y2554512D1*
X1415303Y2556413D1*
X1401543D1*
Y2516221D1*
X1412261Y2537268D2*
X1422978Y2516221D1*
X1452739Y2556413D2*
X1432860D1*
Y2516221D1*
X1452739D1*
X1432860Y2537268D2*
X1445098D1*
X1484056Y2550665D2*
X1481014Y2554512D1*
X1476415Y2556413D1*
X1470296D1*
X1465697Y2554512D1*
X1462620Y2550665D1*
Y2546863D1*
X1464176Y2543016D1*
X1465697Y2541114D1*
X1468739Y2539213D1*
X1477936Y2535366D1*
X1481014Y2533465D1*
X1482535Y2531520D1*
X1484056Y2527717D1*
Y2521969D1*
X1481014Y2518167D1*
X1476415Y2516221D1*
X1470296D1*
X1465697Y2518167D1*
X1462620Y2521969D1*
X1516894Y2546863D2*
X1515373Y2550665D1*
X1512295Y2554512D1*
X1509253Y2556413D1*
X1503134D1*
X1500056Y2554512D1*
X1497014Y2550665D1*
X1495458Y2546863D1*
X1493937Y2541114D1*
Y2531520D1*
X1495458Y2525816D1*
X1497014Y2521969D1*
X1500056Y2518167D1*
X1503134Y2516221D1*
X1509253D1*
X1512295Y2518167D1*
X1515373Y2521969D1*
X1516894Y2525816D1*
X1526775Y2556413D2*
X1539014Y2516221D1*
X1551253Y2556413D1*
X762130Y1600454D2*
X758283Y1597412D1*
X756382Y1592814D1*
Y1586694D1*
X758283Y1582096D1*
X762130Y1579019D1*
X765933D1*
X769780Y1580575D1*
X771681Y1582096D1*
X773582Y1585138D1*
X777429Y1594335D1*
X779330Y1597412D1*
X781276Y1598933D1*
X785078Y1600454D1*
X790826D1*
X794629Y1597412D1*
X796574Y1592814D1*
Y1586694D1*
X794629Y1582096D1*
X790826Y1579019D1*
X777429Y1610335D2*
Y1624131D1*
X775528Y1628694D1*
X773582Y1630250D1*
X769780Y1631771D1*
X764032D1*
X760229Y1630250D1*
X758284Y1628694D1*
X756382Y1624131D1*
Y1610335D1*
X796574D1*
X764076Y1641652D2*
X762130Y1644730D1*
X756426Y1649328D1*
X796574D1*
X1293626Y1593574D2*
X1289780Y1590532D1*
X1287878Y1585934D1*
Y1579814D1*
X1289780Y1575216D1*
X1293626Y1572139D1*
X1297429D1*
X1301276Y1573695D1*
X1303177Y1575216D1*
X1305078Y1578258D1*
X1308925Y1587455D1*
X1310826Y1590532D1*
X1312772Y1592053D1*
X1316574Y1593574D1*
X1322322D1*
X1326125Y1590532D1*
X1328070Y1585934D1*
Y1579814D1*
X1326125Y1575216D1*
X1322322Y1572139D1*
X1308925Y1603455D2*
Y1617251D1*
X1307024Y1621814D1*
X1305078Y1623370D1*
X1301276Y1624891D1*
X1295528D1*
X1291725Y1623370D1*
X1289780Y1621814D1*
X1287878Y1617251D1*
Y1603455D1*
X1328070D1*
X1297473Y1636329D2*
X1295572D1*
X1291725Y1637850D1*
X1289824Y1639371D1*
X1287923Y1642448D1*
Y1648568D1*
X1289824Y1651610D1*
X1291725Y1653131D1*
X1295572Y1654687D1*
X1299374D1*
X1303221Y1653131D1*
X1308925Y1650089D1*
X1328070Y1634772D1*
Y1656208D1*
X230634Y1563053D2*
X226787Y1560011D1*
X224886Y1555413D1*
Y1549293D1*
X226787Y1544695D1*
X230634Y1541618D1*
X234437D1*
X238283Y1543174D1*
X240185Y1544695D1*
X242086Y1547737D1*
X245933Y1556934D1*
X247834Y1560011D1*
X249780Y1561532D1*
X253582Y1563053D1*
X259330D1*
X263133Y1560011D1*
X265078Y1555413D1*
Y1549293D1*
X263133Y1544695D1*
X259330Y1541618D1*
X245933Y1572934D2*
Y1586730D1*
X244032Y1591293D1*
X242086Y1592849D1*
X238284Y1594370D1*
X232535D1*
X228733Y1592849D1*
X226787Y1591293D1*
X224886Y1586730D1*
Y1572934D1*
X265078D1*
X224886Y1613448D2*
X226787Y1610371D1*
X230634Y1607329D1*
X234437Y1605772D1*
X240185Y1604251D1*
X249780D1*
X255483Y1605772D1*
X259330Y1607329D1*
X263133Y1610371D1*
X265078Y1613448D1*
Y1619568D1*
X263133Y1622610D1*
X259330Y1625687D1*
X255483Y1627208D1*
X249780Y1628729D1*
X240185D1*
X234437Y1627208D1*
X230634Y1625687D1*
X226787Y1622610D1*
X224886Y1619568D1*
Y1613448D1*
Y1638610D2*
X265078D1*
Y1656968D1*
X224886Y1686729D2*
Y1666850D1*
X265078D1*
Y1686729D1*
X244032Y1666850D2*
Y1679088D1*
X879008Y3541118D2*
X875966Y3544965D1*
X871368Y3546866D1*
X865248D1*
X860650Y3544965D1*
X857573Y3541118D1*
Y3537315D1*
X859129Y3533469D1*
X860650Y3531567D1*
X863692Y3529666D1*
X872889Y3525819D1*
X875966Y3523918D1*
X877487Y3521972D1*
X879008Y3518170D1*
Y3512422D1*
X875966Y3508619D1*
X871368Y3506674D1*
X865248D1*
X860650Y3508619D1*
X857573Y3512422D1*
X888889Y3546866D2*
X896565Y3506674D1*
X904206Y3546866D1*
X911846Y3506674D1*
X919522Y3546866D1*
X953881Y3506674D2*
Y3546866D1*
X941642Y3506674D1*
X929403Y3546866D1*
Y3506674D1*
X972959Y3546866D2*
X969882Y3544965D1*
X966839Y3541118D1*
X965283Y3537315D1*
X963762Y3531567D1*
Y3521972D1*
X965283Y3516269D1*
X966839Y3512422D1*
X969882Y3508619D1*
X972959Y3506674D1*
X979078D1*
X982120Y3508619D1*
X985198Y3512422D1*
X986719Y3516269D1*
X988240Y3521972D1*
Y3531567D1*
X986719Y3537315D1*
X985198Y3541118D1*
X982120Y3544965D1*
X979078Y3546866D1*
X972959D1*
X998121D2*
Y3506674D1*
X1008839D1*
X1013437Y3508619D1*
X1016515Y3512422D1*
X1018036Y3516269D1*
X1019557Y3521972D1*
Y3531567D1*
X1018036Y3537315D1*
X1016515Y3541118D1*
X1013437Y3544965D1*
X1008839Y3546866D1*
X998121D1*
X1049317D2*
X1029438D1*
Y3506674D1*
X1049317D1*
X1029438Y3527720D2*
X1041677D1*
X984523Y2238992D2*
Y2259995D1*
X999822Y2248543D1*
Y2254291D1*
X1001723Y2258094D1*
X1003624Y2259995D1*
X1009372Y2261940D1*
X1013175D1*
X1018923Y2259995D1*
X1022770Y2256192D1*
X1024671Y2250444D1*
Y2244696D1*
X1022770Y2238992D1*
X1020824Y2237091D1*
X1017022Y2235146D1*
X984523Y2278139D2*
Y2299141D1*
X999822Y2287689D1*
Y2293437D1*
X1001723Y2297240D1*
X1003624Y2299141D1*
X1009372Y2301086D1*
X1013175D1*
X1018923Y2299141D1*
X1022770Y2295338D1*
X1024671Y2289590D1*
Y2283842D1*
X1022770Y2278138D1*
X1020824Y2276237D1*
X1017022Y2274292D1*
X994074Y2315383D2*
X992173D1*
X988326Y2317285D1*
X986425Y2319186D1*
X984523Y2323033D1*
Y2330682D1*
X986425Y2334484D1*
X988326Y2336386D1*
X992173Y2338331D1*
X995975D1*
X999822Y2336386D1*
X1005526Y2332583D1*
X1024671Y2313438D1*
Y2340232D1*
X984523Y2364080D2*
X986425Y2358332D1*
X992173Y2354485D1*
X1001723Y2352584D1*
X1007471D1*
X1017022Y2354485D1*
X1022770Y2358332D1*
X1024671Y2364080D1*
Y2367882D1*
X1022770Y2373630D1*
X1017022Y2377433D1*
X1007471Y2379378D1*
X1001723D1*
X992173Y2377433D1*
X986425Y2373630D1*
X984523Y2367882D1*
Y2364080D1*
X992173Y2377433D2*
X1017022Y2354485D1*
M02*
