G04 DipTrace 3.1.0.0*
G04 Bottom.gbr*
%MOIN*%
G04 #@! TF.FileFunction,Copper,L2,Bot*
G04 #@! TF.Part,Single*
G04 #@! TA.AperFunction,ComponentPad*
%ADD17O,0.314961X0.15748*%
%FSLAX26Y26*%
G04*
G70*
G90*
G75*
G01*
G04 Bottom*
%LPD*%
D17*
X153000Y4929000D3*
X1746000Y4932000D3*
X153000Y117000D3*
X1747000Y115500D3*
M02*
