G04 DipTrace 3.1.0.0*
G04 BottomMask.gbr*
%MOIN*%
G04 #@! TF.FileFunction,Soldermask,Bot*
G04 #@! TF.Part,Single*
%ADD18C,0.25315*%
%ADD21O,0.320945X0.163465*%
%FSLAX26Y26*%
G04*
G70*
G90*
G75*
G01*
G04 BotMask*
%LPD*%
D18*
X436071Y4251969D3*
X1499063D3*
X455756Y3543307D3*
X1518748D3*
X984252Y4251969D3*
X455756Y2834646D3*
X1518748D3*
X987252Y2125984D3*
X1518748D3*
X987252Y2834646D3*
X455756Y708661D3*
Y1417323D3*
X987252D3*
X1518748D3*
X455756Y2125984D3*
X987252Y708661D3*
X1518748D3*
X987252Y3543307D3*
D21*
X153000Y4929000D3*
X1746000Y4932000D3*
X153000Y117000D3*
X1747000Y115500D3*
M02*
